{
    "AuxAudioDevice1": {
        "enabled": true,
        "flags": 0,
        "hotkeys": {
            "libobs.mute": [],
            "libobs.push-to-mute": [],
            "libobs.push-to-talk": [],
            "libobs.unmute": []
        },
        "id": "pulse_input_capture",
        "mixers": 15,
        "muted": false,
        "name": "Mic/Aux",
        "push-to-mute": false,
        "push-to-mute-delay": 0,
        "push-to-talk": false,
        "push-to-talk-delay": 0,
        "settings": {
            "device_id": "default"
        },
        "sync": 0,
        "volume": 1.0
    },
    "DesktopAudioDevice1": {
        "enabled": true,
        "flags": 0,
        "hotkeys": {
            "libobs.mute": [],
            "libobs.push-to-mute": [],
            "libobs.push-to-talk": [],
            "libobs.unmute": []
        },
        "id": "pulse_output_capture",
        "mixers": 15,
        "muted": false,
        "name": "Desktop Audio",
        "push-to-mute": false,
        "push-to-mute-delay": 0,
        "push-to-talk": false,
        "push-to-talk-delay": 0,
        "settings": {
            "device_id": "default"
        },
        "sync": 0,
        "volume": 1.0
    },
    "current_program_scene": "Vidya",
    "current_scene": "Vidya",
    "current_transition": "Fade",
    "name": "General",
    "quick_transitions": [],
    "scene_order": [
        {
            "name": "Vidya"
        }
    ],
    "sources": [
        {
            "enabled": true,
            "flags": 0,
            "hotkeys": {
                "OBSBasic.SelectScene": [],
                "libobs.hide_scene_item.MUMBLE": [],
                "libobs.hide_scene_item.TF2": [],
                "libobs.hide_scene_item.Window Capture (Xcomposite)": [],
                "libobs.show_scene_item.MUMBLE": [],
                "libobs.show_scene_item.TF2": [],
                "libobs.show_scene_item.Window Capture (Xcomposite)": []
            },
            "id": "scene",
            "mixers": 0,
            "muted": false,
            "name": "Vidya",
            "push-to-mute": false,
            "push-to-mute-delay": 0,
            "push-to-talk": false,
            "push-to-talk-delay": 0,
            "settings": {
                "items": [
                    {
                        "align": 5,
                        "bounds": {
                            "x": 0.0,
                            "y": 0.0
                        },
                        "bounds_align": 0,
                        "bounds_type": 0,
                        "name": "TF2",
                        "pos": {
                            "x": 0.0,
                            "y": 0.0
                        },
                        "rot": 0.0,
                        "scale": {
                            "x": 1.0,
                            "y": 1.0
                        },
                        "visible": true
                    },
                    {
                        "align": 5,
                        "bounds": {
                            "x": 0.0,
                            "y": 0.0
                        },
                        "bounds_align": 0,
                        "bounds_type": 0,
                        "name": "MUMBLE",
                        "pos": {
                            "x": 0.0,
                            "y": 0.0
                        },
                        "rot": 0.0,
                        "scale": {
                            "x": 1.0,
                            "y": 1.0
                        },
                        "visible": true
                    },
                    {
                        "align": 5,
                        "bounds": {
                            "x": 0.0,
                            "y": 0.0
                        },
                        "bounds_align": 0,
                        "bounds_type": 0,
                        "name": "Window Capture (Xcomposite)",
                        "pos": {
                            "x": 0.0,
                            "y": 0.0
                        },
                        "rot": 0.0,
                        "scale": {
                            "x": 1.0,
                            "y": 1.0
                        },
                        "visible": true
                    }
                ]
            },
            "sync": 0,
            "volume": 1.0
        },
        {
            "enabled": true,
            "flags": 0,
            "hotkeys": {
                "libobs.mute": [],
                "libobs.push-to-mute": [],
                "libobs.push-to-talk": [],
                "libobs.unmute": []
            },
            "id": "pulse_output_capture",
            "mixers": 15,
            "muted": false,
            "name": "MUMBLE",
            "push-to-mute": false,
            "push-to-mute-delay": 0,
            "push-to-talk": false,
            "push-to-talk-delay": 0,
            "settings": {
                "device_id": "webstream_sink.monitor"
            },
            "sync": 0,
            "volume": 1.0
        },
        {
            "enabled": true,
            "flags": 0,
            "hotkeys": {},
            "id": "xcomposite_input",
            "mixers": 0,
            "muted": false,
            "name": "Window Capture (Xcomposite)",
            "push-to-mute": false,
            "push-to-mute-delay": 0,
            "push-to-talk": false,
            "push-to-talk-delay": 0,
            "settings": {
                "capture_window": "23068683\r\nTeam Fortress 2 - OpenGL\r\n"
            },
            "sync": 0,
            "volume": 1.0
        },
        {
            "enabled": true,
            "flags": 0,
            "hotkeys": {
                "libobs.mute": [],
                "libobs.push-to-mute": [],
                "libobs.push-to-talk": [],
                "libobs.unmute": []
            },
            "id": "pulse_output_capture",
            "mixers": 15,
            "muted": false,
            "name": "TF2",
            "push-to-mute": false,
            "push-to-mute-delay": 0,
            "push-to-talk": false,
            "push-to-talk-delay": 0,
            "settings": {},
            "sync": 0,
            "volume": 1.0
        }
    ],
    "transition_duration": 300
}